%YAML 1.1
%TAG !u! tag:unity3d.com,2011:
--- !u!1001 &100100000
Prefab:
  m_ObjectHideFlags: 1
  serializedVersion: 2
  m_Modification:
    m_TransformParent: {fileID: 0}
    m_Modifications: []
    m_RemovedComponents: []
  m_ParentPrefab: {fileID: 0}
  m_RootGameObject: {fileID: 1203199945101610}
  m_IsPrefabParent: 1
--- !u!1 &1203199945101610
GameObject:
  m_ObjectHideFlags: 0
  m_PrefabParentObject: {fileID: 0}
  m_PrefabInternal: {fileID: 100100000}
  serializedVersion: 5
  m_Component:
  - component: {fileID: 4636346288055868}
  - component: {fileID: 114330581528190884}
  m_Layer: 0
  m_Name: _PlayServices_Singleton
  m_TagString: Untagged
  m_Icon: {fileID: 0}
  m_NavMeshLayer: 0
  m_StaticEditorFlags: 0
  m_IsActive: 1
--- !u!4 &4636346288055868
Transform:
  m_ObjectHideFlags: 1
  m_PrefabParentObject: {fileID: 0}
  m_PrefabInternal: {fileID: 100100000}
  m_GameObject: {fileID: 1203199945101610}
  m_LocalRotation: {x: 0, y: 0, z: 0, w: 1}
  m_LocalPosition: {x: 1.0986196, y: -3.3069394, z: 0}
  m_LocalScale: {x: 1, y: 1, z: 1}
  m_Children: []
  m_Father: {fileID: 0}
  m_RootOrder: 0
  m_LocalEulerAnglesHint: {x: 0, y: 0, z: 0}
--- !u!114 &114330581528190884
MonoBehaviour:
  m_ObjectHideFlags: 1
  m_PrefabParentObject: {fileID: 0}
  m_PrefabInternal: {fileID: 100100000}
  m_GameObject: {fileID: 1203199945101610}
  m_Enabled: 1
  m_EditorHideFlags: 0
  m_Script: {fileID: 11500000, guid: 347e7a7d9d30e8342a1ff766e6818df2, type: 3}
  m_Name: 
  m_EditorClassIdentifier: 
  get_LeaderBoard_Iniciado: {fileID: 11400000, guid: 65a024347bce79e4ca9574d700c98328,
    type: 2}
  get_LeaderBoard_Finalizado: {fileID: 11400000, guid: 89b62eecce414b544b6b7995c681987c,
    type: 2}
  logInEvent: {fileID: 11400000, guid: fc4e445030916074db650fb285b64266, type: 2}
