%YAML 1.1
%TAG !u! tag:unity3d.com,2011:
--- !u!114 &11400000
MonoBehaviour:
  m_ObjectHideFlags: 0
  m_PrefabParentObject: {fileID: 0}
  m_PrefabInternal: {fileID: 0}
  m_GameObject: {fileID: 0}
  m_Enabled: 1
  m_EditorHideFlags: 0
  m_Script: {fileID: 11500000, guid: c15b1b930be1e57448dfa4c6274928dc, type: 3}
  m_Name: Engranaje
  m_EditorClassIdentifier: 
  serializationData:
    SerializedFormat: 2
    SerializedBytes: 
    ReferencedUnityObjects: []
    SerializedBytesString: 
    Prefab: {fileID: 0}
    PrefabModificationsReferencedUnityObjects: []
    PrefabModifications: []
    SerializationNodes: []
  "dise\xF1o": {fileID: 21300000, guid: e6d81f2d66cfa564294da601e1fb7b78, type: 3}
  "cDise\xF1o": {r: 0.7352941, g: 0.7352941, b: 0.7352941, a: 1}
  cuerpo: {fileID: 21300000, guid: 7b09adf085c31c0428fdf07037f637ad, type: 3}
  cCuerpo: {r: 1, g: 1, b: 1, a: 1}
  sombra: {fileID: 21300000, guid: c20c64b23e9e6cb48801a04331547849, type: 3}
  cSombra: {r: 0, g: 0, b: 0, a: 0.197}
  brillo: {fileID: 21300000, guid: 5468fa9d6e6d0ed49b12795c65370921, type: 3}
