%YAML 1.1
%TAG !u! tag:unity3d.com,2011:
--- !u!114 &11400000
MonoBehaviour:
  m_ObjectHideFlags: 0
  m_PrefabParentObject: {fileID: 0}
  m_PrefabInternal: {fileID: 0}
  m_GameObject: {fileID: 0}
  m_Enabled: 1
  m_EditorHideFlags: 0
  m_Script: {fileID: 11500000, guid: c15b1b930be1e57448dfa4c6274928dc, type: 3}
  m_Name: skin_Pelota 43
  m_EditorClassIdentifier: 
  serializationData:
    SerializedFormat: 2
    SerializedBytes: 
    ReferencedUnityObjects: []
    SerializedBytesString: 
    Prefab: {fileID: 0}
    PrefabModificationsReferencedUnityObjects: []
    PrefabModifications: []
    SerializationNodes: []
  "dise\xF1o": {fileID: 21300000, guid: f27c6e04d7717cc42a358214e0c7fee3, type: 3}
  "cDise\xF1o": {r: 0, g: 0, b: 0, a: 0.472}
  cuerpo: {fileID: 21300000, guid: 7da0a7ae74c7e7142896f8e4cc19678d, type: 3}
  cCuerpo: {r: 1, g: 0.3137255, b: 0.44705883, a: 1}
  sombra: {fileID: 21300000, guid: c20c64b23e9e6cb48801a04331547849, type: 3}
  cSombra: {r: 0.6691177, g: 0.054119825, b: 0.14579655, a: 0.259}
  brillo: {fileID: 21300000, guid: 5468fa9d6e6d0ed49b12795c65370921, type: 3}
