%YAML 1.1
%TAG !u! tag:unity3d.com,2011:
--- !u!114 &11400000
MonoBehaviour:
  m_ObjectHideFlags: 0
  m_PrefabParentObject: {fileID: 0}
  m_PrefabInternal: {fileID: 0}
  m_GameObject: {fileID: 0}
  m_Enabled: 1
  m_EditorHideFlags: 0
  m_Script: {fileID: 11500000, guid: b83662b838959704d871a4ce1954822c, type: 3}
  m_Name: Pelota.config
  m_EditorClassIdentifier: 
  serializationData:
    SerializedFormat: 2
    SerializedBytes: 
    ReferencedUnityObjects:
    - {fileID: 11400000, guid: 8afec95c43bce194380edcb61bd2d45e, type: 2}
    SerializedBytesString: 
    Prefab: {fileID: 0}
    PrefabModificationsReferencedUnityObjects: []
    PrefabModifications: []
    SerializationNodes:
    - Name: fuerzaRebote
      Entry: 7
      Data: 0|VariableReference`1[[System.Single, mscorlib]], Assembly-CSharp
    - Name: UsarConstante
      Entry: 5
      Data: true
    - Name: ConstantValue
      Entry: 4
      Data: 6
    - Name: Variable
      Entry: 6
      Data: 
    - Name: 
      Entry: 8
      Data: 
    - Name: "dise\xF1o"
      Entry: 7
      Data: 1|VariableReference`1[[UnityEngine.Sprite, UnityEngine.CoreModule]], Assembly-CSharp
    - Name: UsarConstante
      Entry: 5
      Data: false
    - Name: ConstantValue
      Entry: 6
      Data: 
    - Name: Variable
      Entry: 10
      Data: 0
    - Name: 
      Entry: 8
      Data: 
    - Name: "tama\xF1o"
      Entry: 7
      Data: 2|VariableReference`1[[System.Single, mscorlib]], Assembly-CSharp
    - Name: UsarConstante
      Entry: 5
      Data: true
    - Name: ConstantValue
      Entry: 4
      Data: 1.2
    - Name: Variable
      Entry: 6
      Data: 
    - Name: 
      Entry: 8
      Data: 
    - Name: masa
      Entry: 7
      Data: 3|VariableReference`1[[System.Single, mscorlib]], Assembly-CSharp
    - Name: UsarConstante
      Entry: 5
      Data: true
    - Name: ConstantValue
      Entry: 4
      Data: 1
    - Name: Variable
      Entry: 6
      Data: 
    - Name: 
      Entry: 8
      Data: 
  wrapX: 1
  wrapY: 0
  rebotarSiempre: 1
  "onChangeTama\xF1o_Pelota": {fileID: 11400000, guid: 9b7cf771417516c4fa8e3017193bbbfa,
    type: 2}
  onChangeMasa_Pelota: {fileID: 11400000, guid: b2a63480a1066034488cbf5432beb3c1,
    type: 2}
