%YAML 1.1
%TAG !u! tag:unity3d.com,2011:
--- !u!114 &11400000
MonoBehaviour:
  m_ObjectHideFlags: 0
  m_PrefabParentObject: {fileID: 0}
  m_PrefabInternal: {fileID: 0}
  m_GameObject: {fileID: 0}
  m_Enabled: 1
  m_EditorHideFlags: 0
  m_Script: {fileID: 11500000, guid: 128b46f25e5fc8a48b1a3a6bb816be96, type: 3}
  m_Name: TimeScale.config
  m_EditorClassIdentifier: 
  serializationData:
    SerializedFormat: 2
    SerializedBytes: 
    ReferencedUnityObjects:
    - {fileID: 11400000, guid: 793a742db80676e4c851071667ff86bd, type: 2}
    - {fileID: 11400000, guid: ca6236491079129429342a2d13c54647, type: 2}
    - {fileID: 11400000, guid: f8a70232bdf1585498971b27d0c8f120, type: 2}
    - {fileID: 11400000, guid: 21b29484ae20e684aa440edef1ee6307, type: 2}
    SerializedBytesString: 
    Prefab: {fileID: 0}
    PrefabModificationsReferencedUnityObjects: []
    PrefabModifications: []
    SerializationNodes:
    - Name: timeScale_PasoActual
      Entry: 7
      Data: 0|VariableReference`1[[System.Single, mscorlib]], Assembly-CSharp
    - Name: UsarConstante
      Entry: 5
      Data: false
    - Name: ConstantValue
      Entry: 4
      Data: 0
    - Name: Variable
      Entry: 10
      Data: 0
    - Name: 
      Entry: 8
      Data: 
    - Name: timeScale_Base
      Entry: 7
      Data: 1|VariableReference`1[[System.Single, mscorlib]], Assembly-CSharp
    - Name: UsarConstante
      Entry: 5
      Data: false
    - Name: ConstantValue
      Entry: 4
      Data: 0
    - Name: Variable
      Entry: 10
      Data: 1
    - Name: 
      Entry: 8
      Data: 
    - Name: timeScale_PasosNecesarios
      Entry: 7
      Data: 2|VariableReference`1[[System.Single, mscorlib]], Assembly-CSharp
    - Name: UsarConstante
      Entry: 5
      Data: false
    - Name: ConstantValue
      Entry: 4
      Data: 0
    - Name: Variable
      Entry: 10
      Data: 2
    - Name: 
      Entry: 8
      Data: 
    - Name: timeScale_Maximo
      Entry: 7
      Data: 3|VariableReference`1[[System.Single, mscorlib]], Assembly-CSharp
    - Name: UsarConstante
      Entry: 5
      Data: false
    - Name: ConstantValue
      Entry: 4
      Data: 0
    - Name: Variable
      Entry: 10
      Data: 3
    - Name: 
      Entry: 8
      Data: 
